<svg xmlns="http://www.w3.org/2000/svg" viewBox="0 0 500 337.38">
<defs>
	<style>
		.header__logo-text {
			fill: #07b5e7;
		}

		.cls-1 {
			fill: url(#linear-gradient);
		}

		.cls-2 {
			fill: url(#linear-gradient-2);
		}

		.cls-3 {
			fill: url(#linear-gradient-3);
		}

		.cls-4 {
			fill: #0fb2e8;
		}

		.cls-5 {
			fill: #01547c;
		}

		.header__logo-tagline {
			fill: #005b7f;
		}
	</style>
	<linearGradient id="linear-gradient" x1="212.28" x2="260.9" y1="476.07" y2="476.07" gradientTransform="matrix(1 0 0 -1 1.97 606.3)" gradientUnits="userSpaceOnUse"><stop offset="0" stop-color="#aab8c0"></stop><stop offset="1" stop-color="#c9d3d7"></stop></linearGradient>
	<linearGradient id="linear-gradient-2" x1="169.16" x2="169.16" y1="571.03" y2="444.76" gradientTransform="matrix(1 0 0 -1 1.97 606.3)" gradientUnits="userSpaceOnUse"><stop offset="0" stop-color="#abd9f2"></stop><stop offset="1" stop-color="#0fb2e8"></stop></linearGradient>
	<linearGradient id="linear-gradient-3" x1="167.63" x2="257.63" y1="542.62" y2="542.62" gradientTransform="matrix(1 0 0 -1 1.97 606.3)" gradientUnits="userSpaceOnUse"><stop offset="0" stop-color="#033b58"></stop><stop offset="1" stop-color="#005479"></stop></linearGradient>
</defs>
<g class="header__logo-moebius"><path class="cls-1" d="M260.68 96.28s-8.55 53.8-46.43 67c0 0 32.55 5.7 44.12-12.38 8.52-13.3 2.3-54.65 2.3-54.65z"></path><path class="cls-2" d="M177.2 86.38c-7.33-22.54-10.27-38.9-11.07-50.54-20.74 10.4-33.68 28.38-41.3 50 .4 11.23 3.68 23.48 11.23 36.67 33.8 59.1 81.37 35.7 81.37 35.7s-20.6-11.4-40.23-71.8z"></path><path class="cls-3" d="M169.6 34.2v.1c79.1 14.9 87.1 65.87 87.1 65.87 7.42-23.85-.35-45.7-13.3-62.88-23-13.2-52-12.8-73.82-3.1z"></path><path class="cls-4" d="M166.12 35.84c-1.35-19.55 3.3-25.84 3.3-25.84-12.14 10.25-46 36.82-44.6 75.87 7.63-21.67 20.57-39.63 41.3-50z"></path><path class="cls-5" d="M188 0c-20.48 0-18.54 32.4-18.42 34.2 20.8-9.2 51.42-9.64 73.84 3.1C226.27 14.53 200 0 188 0z"></path></g>
<path class="header__logo-text" d="M499.58 242.3a45.6 45.6 0 0 0 .42-6.14c0-21.9-15.16-39.68-33.87-39.68s-33.87 17.76-33.87 39.68 15.16 39.68 33.87 39.68c10.48 0 19.84-5.58 26.06-14.34a41.57 41.57 0 0 0 4.8-9.14h-21.2a13 13 0 0 1-9.7 4.8c-6.9 0-12.8-6.23-14.7-14.87 0 0 46-.1 48.1 0m-47.3-15.2c2.4-7.2 7.7-11.9 13.9-11.9s11.4 4.7 13.8 11.9zM411.9 198c0-4.64 3.43-15.15 14.78-15.15 8.27 0 11.9 5.22 11.9 5.22l8.94-13.33c-7.66-6.12-12.2-7.46-20.8-7.46-18.9 0-34.18 9.87-34.18 40.93v67h18.85v-61.4h11.8l9.7-15.7zm-57.15-.02h19.92v77.2h-19.93zm-12.38 58.9H315.3v-91.6l-19.92 12.9v97.05h47v-18.3zm-88.4 18.9c-12 0-23.68-3.47-31.76-8.84l6.7-15.23a52.75 52.75 0 0 0 26.3 7c7.8 0 10.1-1.9 10.1-5.8 0-3.5-2.7-5.2-11.1-7.7-18.2-5.5-29.8-10-29.8-26.1 0-15.8 12.6-22.6 30.3-22.6a60.2 60.2 0 0 1 28 7.4l-6.3 15.8c-7.5-4-15.7-6-22.1-6-8.1 0-10.2 1.6-10.2 5s2.3 4.5 15.7 8.9S285 237 285 252.2c0 17.6-13.87 23.8-30.9 23.8m-71.6-79.4c-18.77 0-34 17.85-34 39.8v71.9l18.74-12v-24.4a29.93 29.93 0 0 0 15.3 4.3c18.77 0 34-17.8 34-39.8s-15.24-39.8-34-39.8m0 60.77c-8.44 0-15.27-9.4-15.27-21s6.85-20.9 15.28-20.9 15.3 9.4 15.3 20.9-6.83 20.97-15.27 20.97m-68.15-59.2h19.9v77.2h-19.9zM79.3 275.4v-97.1L99 165.4v109.87H79.1zm-11.84-33a46.23 46.23 0 0 0 .4-6.14c0-21.9-15.16-39.7-33.86-39.7S0 214.3 0 236.2s15.16 39.67 33.87 39.67c10.48 0 19.84-5.58 26.05-14.34a41.42 41.42 0 0 0 4.86-9.1H43.55a13 13 0 0 1-9.7 4.8c-6.9 0-12.76-6.2-14.65-14.8 0 0 46-.02 48.12 0M20 227.1c2.43-7.16 7.73-11.9 13.87-11.9s11.44 4.75 13.88 11.9z"></path>
<path class="header__logo-tagline" d="M246.23 337.37H242l2.92-7.52-7.4-19.85h4.37l3.3 9.88c.2.57.5 1.62 1 3.17s.7 2.45.7 2.73l1-3.5c.2-.75.4-1.52.7-2.32l3.4-10h4.2zm22.3-6.67a8.06 8.06 0 0 1-6.38-2.9 12.87 12.87 0 0 1 0-15.33 8.7 8.7 0 0 1 12.9 0 11 11 0 0 1 2.57 7.56 11.24 11.24 0 0 1-2.56 7.77 8.4 8.4 0 0 1-6.56 2.87m0-17.32a4.2 4.2 0 0 0-3.57 1.8 9.85 9.85 0 0 0 .06 9.95 4.43 4.43 0 0 0 3.7 1.8 4.24 4.24 0 0 0 3.6-1.9 8.1 8.1 0 0 0 1.3-4.83 8 8 0 0 0-1.4-4.94 4.5 4.5 0 0 0-3.8-1.85m26.2 16.87v-1.92a5.08 5.08 0 0 1-2.2 1.76 7 7 0 0 1-3 .6q-7.2 0-7.2-9.1V310h4v11.5a6.84 6.84 0 0 0 1 4.26 3.77 3.77 0 0 0 3.1 1.3 3.7 3.7 0 0 0 3-1.35 6 6 0 0 0 1.1-3.8V310h4v20.2zm20.8-16.02a6.7 6.7 0 0 0-1.4-.54 6.5 6.5 0 0 0-1.7-.2 3.5 3.5 0 0 0-2.9 1.3 6.2 6.2 0 0 0-1 3.8v11.5h-4V310h4v2a5.23 5.23 0 0 1 1.9-1.7 5.65 5.65 0 0 1 2.7-.65 6.1 6.1 0 0 1 3.4.85zm17.7-6.83a2.48 2.48 0 0 1-1.8-.74 2.44 2.44 0 0 1-.8-1.8 2.57 2.57 0 0 1 2.5-2.57 2.45 2.45 0 0 1 1.8.7 2.5 2.5 0 0 1 .7 1.8 2.57 2.57 0 0 1-2.6 2.5m-2 2.6h4v20.2h-4zm22.22 20.2v-11.4a6.82 6.82 0 0 0-1-4.3 3.76 3.76 0 0 0-3.1-1.3 3.7 3.7 0 0 0-3.1 1.3 5.94 5.94 0 0 0-1.06 3.8V330h-4v-20h4v2a5.1 5.1 0 0 1 2.12-1.73 7.1 7.1 0 0 1 3-.62q7.2 0 7.2 9v11.6zm16.2.4a12.63 12.63 0 0 1-4.04-.7 13.66 13.66 0 0 1-3.66-1.9l1.8-3a10.06 10.06 0 0 0 5.88 2q3.7 0 3.7-2.3a2 2 0 0 0-1-1.8 26.9 26.9 0 0 0-4-1.8 12.08 12.08 0 0 1-4.3-2.5 5.14 5.14 0 0 1-1.3-3.7 4.84 4.84 0 0 1 1.9-4.1 8 8 0 0 1 5-1.44 11.26 11.26 0 0 1 3.6.6 12.32 12.32 0 0 1 3.27 1.66l-1.75 3a9.13 9.13 0 0 0-5.28-1.7 3.65 3.65 0 0 0-2.1.5 1.58 1.58 0 0 0-.7 1.33 1.8 1.8 0 0 0 .8 1.4 17.2 17.2 0 0 0 3.8 1.8 15.46 15.46 0 0 1 4.5 2.5 6 6 0 0 1-.63 8.55 9.58 9.58 0 0 1-5.44 1.4m24.75-.4V328a5.08 5.08 0 0 1-2.1 1.75 7 7 0 0 1-3 .6q-7.2 0-7.2-9.1V310h4v11.5a6.84 6.84 0 0 0 1 4.26 3.77 3.77 0 0 0 3.18 1.3 3.7 3.7 0 0 0 3.07-1.35 6 6 0 0 0 1.1-3.8V310h4v20.2zm20.8-16a6.7 6.7 0 0 0-1.33-.55 6.5 6.5 0 0 0-1.7-.2 3.5 3.5 0 0 0-2.9 1.3 6.2 6.2 0 0 0-1 3.84V330h-4v-20h4v2a5.2 5.2 0 0 1 1.9-1.7 5.64 5.64 0 0 1 2.7-.65 6.1 6.1 0 0 1 3.4.85zm16.8 16.1v-2a8.8 8.8 0 0 1-2.5 1.78 7.05 7.05 0 0 1-3 .7 7.62 7.62 0 0 1-4.9-1.67 6.2 6.2 0 0 1-2.1-5.15 5.76 5.76 0 0 1 2.2-4.9 9.47 9.47 0 0 1 5.88-1.67 11.12 11.12 0 0 1 4.5.8v-1.5q0-3.4-3.8-3.4a10.67 10.67 0 0 0-5.28 1.3l-1.56-3a11.78 11.78 0 0 1 3.1-1.37 14.58 14.58 0 0 1 3.8-.46 8.36 8.36 0 0 1 5.55 1.7 6.25 6.25 0 0 1 2 5.1v13.83zm0-8.63a8.15 8.15 0 0 0-2-.62 14 14 0 0 0-2.6-.2 5.08 5.08 0 0 0-3 .8 2.6 2.6 0 0 0-1.1 2.2 3.18 3.18 0 0 0 1 2.5 4.14 4.14 0 0 0 2.9.9 5.47 5.47 0 0 0 2.8-.8 6.37 6.37 0 0 0 2.1-1.9zm21.9 8.7v-11.4a6.83 6.83 0 0 0-1-4.25 3.77 3.77 0 0 0-3.1-1.3 3.7 3.7 0 0 0-3.1 1.36 6 6 0 0 0-1.1 3.8v11.8h-4V310h4v2a5.1 5.1 0 0 1 2.1-1.73 7.12 7.12 0 0 1 3-.62q7.2 0 7.2 9v11.6zM476 315.8a7 7 0 0 0-4.93-2.46 4 4 0 0 0-3.47 1.8 8.38 8.38 0 0 0-1.27 4.9 8.7 8.7 0 0 0 1.3 4.9 4.1 4.1 0 0 0 3.6 1.9 4.46 4.46 0 0 0 2.3-.6 11.75 11.75 0 0 0 2.3-1.9l2.53 2.5a11.17 11.17 0 0 1-3.07 2.8 8 8 0 0 1-4.2 1 7.9 7.9 0 0 1-6.3-2.9 11.2 11.2 0 0 1-2.5-7.6 11.33 11.33 0 0 1 2.5-7.76 8 8 0 0 1 6.3-2.83 9 9 0 0 1 7.1 3.4zm23.73 5.7h-13.4a6.85 6.85 0 0 0 1.7 4.2 4.63 4.63 0 0 0 3.4 1.4 6.07 6.07 0 0 0 2.23-.4 9.83 9.83 0 0 0 2.15-1.25l2.4 2.54a9.2 9.2 0 0 1-3 2 10.72 10.72 0 0 1-3.9.6 8 8 0 0 1-6.2-2.8 11.15 11.15 0 0 1-2.5-7.7q0-5 2.4-7.8a8.14 8.14 0 0 1 6.5-2.8 7.46 7.46 0 0 1 6.3 2.9 11.53 11.53 0 0 1 2.2 7.2zm-8.67-8.36q-4.1 0-4.66 5.02h9.4a5.42 5.42 0 0 0-1.2-3.68 4.44 4.44 0 0 0-3.58-1.43"></path>
</svg>